dem_req_rate,req_rate_inso-int.net-ng.com,con_rate_inso-int.net-ng.com,min_rep_rate_inso-int.net-ng.com,avg_rep_rate_inso-int.net-ng.com,max_rep_rate_inso-int.net-ng.com,stddev_rep_rate_inso-int.net-ng.com,resp_time_inso-int.net-ng.com,net_io_inso-int.net-ng.com,errors_inso-int.net-ng.com
10,10.0,10.0,9.4,10.0,10.4,0.1,346.3,380.9,0
15,15.0,15.0,14.0,15.0,15.6,0.2,386.1,571.1,0
20,20.0,20.0,18.4,20.0,20.4,0.3,454.3,761.2,0
25,24.5,24.5,0.0,8.3,24.8,11.2,2760.6,311.9,201.053687907677
30,29.3,29.3,0.0,2.4,5.8,1.9,320.6,10.3,1114.57489878543
35,34.0,34.0,0.0,7.8,16.6,3.4,12.9,6.6,337.31778425656
40,31.4,37.1,0.0,7.2,12.2,2.9,10.9,6.1,421.739130434783
45,30.5,41.4,0.0,7.2,16.4,3.1,10.0,5.9,494.648166501487
50,26.2,42.3,0.0,6.8,14.6,3.5,9.6,5.3,534.249471458774
55,26.0,43.2,0.0,6.6,11.2,3.6,14.4,5.5,570.391061452514
60,,,,,,,,,101
65,,,,,,,,,101
70,,,,,,,,,101
75,,,,,,,,,101
80,,,,,,,,,101
85,27.3,59.4,0.0,6.3,18.4,4.3,526.3,51.5,858.466453674121
90,,,,,,,,,101
95,29.0,67.1,0.0,7.1,20.6,5.1,636.6,64.7,886.842105263158
100,28.2,67.5,0.0,6.8,20.6,5.5,664.9,64.0,936.269430051814
