dem_req_rate,req_rate_selfcare-int.net-ng.com,con_rate_selfcare-int.net-ng.com,min_rep_rate_selfcare-int.net-ng.com,avg_rep_rate_selfcare-int.net-ng.com,max_rep_rate_selfcare-int.net-ng.com,stddev_rep_rate_selfcare-int.net-ng.com,resp_time_selfcare-int.net-ng.com,net_io_selfcare-int.net-ng.com,errors_selfcare-int.net-ng.com
50,50.0,50.0,49.6,50.0,50.2,0.2,33.6,90.8,0
60,60.0,60.0,59.8,59.9,60.2,0.2,33.4,108.9,0
70,69.8,69.8,68.6,69.9,71.6,1.0,43.9,126.9,0
80,80.0,80.0,78.8,79.9,81.0,0.8,46.6,145.3,0
90,89.3,89.3,89.0,89.4,89.8,0.4,56.9,162.3,0
100,99.7,99.7,99.4,99.8,101.0,0.8,56.8,181.1,0
110,108.7,108.7,108.8,109.7,110.2,0.8,82.7,197.5,0
120,117.4,117.4,118.0,119.0,120.0,1.0,102.7,213.3,0
130,128.2,128.2,124.0,129.1,137.0,6.9,183.6,232.9,0
140,125.0,125.0,116.8,126.6,137.4,10.3,780.5,227.0,0
150,120.0,120.0,122.4,128.0,136.8,7.7,1224.1,218.0,0
160,121.2,121.2,122.2,128.9,137.4,7.8,1465.8,215.2,2.33918128654971
170,124.6,126.3,117.2,124.3,128.2,6.1,1562.0,214.5,7.25229826353422
180,119.2,124.2,110.2,119.0,129.8,10.0,1724.4,201.6,12.2994652406417
190,114.2,120.5,109.8,115.6,120.6,5.4,1759.9,191.7,14.5662847790507
200,122.8,127.6,119.6,125.5,131.2,5.8,1654.0,210.1,10.6427818756586
