dem_req_rate,req_rate_selfcare-int.net-ng.com,con_rate_selfcare-int.net-ng.com,min_rep_rate_selfcare-int.net-ng.com,avg_rep_rate_selfcare-int.net-ng.com,max_rep_rate_selfcare-int.net-ng.com,stddev_rep_rate_selfcare-int.net-ng.com,resp_time_selfcare-int.net-ng.com,net_io_selfcare-int.net-ng.com,errors_selfcare-int.net-ng.com
50,49.9,49.9,48.0,50.0,51.2,1.0,94.1,92.8,0
60,60.0,60.0,58.6,60.0,61.2,0.9,61.8,111.6,0
70,69.8,69.8,68.8,69.8,71.6,1.0,70.1,129.7,0
80,79.5,79.5,79.2,79.7,80.6,0.6,70.4,147.9,0
90,89.7,89.7,87.6,89.9,90.8,1.5,137.2,166.7,0
100,97.8,97.8,95.0,98.5,100.6,2.5,160.4,181.9,0
110,97.5,97.5,84.6,96.9,105.2,8.8,1616.4,179.0,1.40028971511347
120,101.8,101.8,88.4,103.3,113.6,12.3,1080.4,187.5,1.01010101010101
130,104.8,104.8,83.0,102.1,113.6,13.4,1336.5,190.0,2.68948655256724
140,107.0,107.9,104.6,109.0,111.4,3.8,1537.8,189.2,6.22154779969651
150,112.3,113.5,107.6,109.9,114.0,3.6,1639.7,194.5,8.8646967340591
160,108.0,110.9,103.4,106.9,113.0,5.3,1814.1,183.8,12.6005361930295
170,106.0,111.5,102.4,106.3,111.4,4.6,1907.0,182.6,13.9446554530657
180,107.1,115.1,98.0,103.6,110.8,6.5,1998.0,180.0,19.4539249146758
190,103.4,116.7,96.6,99.8,103.8,3.7,2091.2,172.1,26.7350633675317
200,105.3,119.5,98.4,101.3,102.8,2.5,2062.4,174.3,28.1269066503966
