dem_req_rate,req_rate_selfcare-int.net-ng.com,con_rate_selfcare-int.net-ng.com,min_rep_rate_selfcare-int.net-ng.com,avg_rep_rate_selfcare-int.net-ng.com,max_rep_rate_selfcare-int.net-ng.com,stddev_rep_rate_selfcare-int.net-ng.com,resp_time_selfcare-int.net-ng.com,net_io_selfcare-int.net-ng.com,errors_selfcare-int.net-ng.com
50,50.0,50.0,50.0,50.0,50.0,0.0,1.1,49.2,0
60,60.0,60.0,60.0,60.0,60.0,0.0,0.9,59.1,0
70,70.0,70.0,70.0,70.0,70.0,0.0,0.9,68.9,0
80,80.0,80.0,80.0,80.0,80.0,0.0,0.9,78.8,0
90,90.0,90.0,90.0,90.0,90.0,0.0,0.8,88.6,0
100,100.0,100.0,100.0,100.0,100.0,0.0,0.9,98.5,0
110,110.0,110.0,110.0,110.0,110.0,0.0,0.9,108.3,0
120,120.0,120.0,120.0,120.0,120.0,0.0,0.9,118.2,0
130,130.0,130.0,130.0,130.0,130.0,0.0,0.9,128.0,0
140,140.1,140.1,140.0,140.0,140.0,0.0,0.9,137.9,0
150,150.0,150.0,150.0,150.0,150.0,0.0,0.9,147.7,0
160,160.1,160.1,160.0,160.0,160.0,0.0,0.8,157.6,0
170,170.1,170.1,170.0,170.0,170.0,0.0,0.8,167.4,0
180,180.0,180.0,180.0,180.0,180.0,0.0,0.8,177.2,0
190,190.1,190.1,190.0,190.0,190.0,0.0,0.8,187.1,0
200,200.1,200.1,200.0,200.0,200.0,0.0,3.1,196.9,0
