dem_req_rate,req_rate_selfcare-int.net-ng.com,con_rate_selfcare-int.net-ng.com,min_rep_rate_selfcare-int.net-ng.com,avg_rep_rate_selfcare-int.net-ng.com,max_rep_rate_selfcare-int.net-ng.com,stddev_rep_rate_selfcare-int.net-ng.com,resp_time_selfcare-int.net-ng.com,net_io_selfcare-int.net-ng.com,errors_selfcare-int.net-ng.com
50,28.7,43.5,0.0,2.7,17.6,6.0,2655.3,6.8,1566.66666666667
60,21.7,48.9,0.0,0.0,0.0,0.0,0.0,1.6,101
70,23.9,57.3,0.0,0.0,0.0,0.0,0.0,1.8,101
80,22.9,61.4,0.0,0.0,0.0,0.0,0.0,1.7,101
90,23.7,67.0,0.0,0.0,0.0,0.0,0.0,1.8,101
100,23.0,72.5,0.0,0.0,0.0,0.0,0.0,1.7,101
110,23.4,77.5,0.0,0.0,0.0,0.0,0.0,1.7,101
120,23.7,82.4,0.0,0.0,0.0,0.0,0.0,1.8,101
130,24.1,91.0,0.0,0.0,0.0,0.0,0.0,1.8,101
140,23.8,98.0,0.0,0.0,0.0,0.0,0.0,1.8,101
150,22.6,99.5,0.0,0.0,0.0,0.0,0.0,1.7,101
160,26.5,101.1,0.0,0.0,0.0,0.0,0.0,2.0,101
170,23.0,103.2,0.0,0.0,0.0,0.0,0.0,1.7,101
180,24.1,106.8,0.0,0.0,0.0,0.0,0.0,1.8,101
190,24.1,113.4,0.0,0.0,0.0,0.0,0.0,1.8,101
200,25.9,125.4,0.0,0.0,0.0,0.0,0.0,1.9,101
