dem_req_rate,req_rate_prod-boproint.net-ng.com,con_rate_prod-boproint.net-ng.com,min_rep_rate_prod-boproint.net-ng.com,avg_rep_rate_prod-boproint.net-ng.com,max_rep_rate_prod-boproint.net-ng.com,stddev_rep_rate_prod-boproint.net-ng.com,resp_time_prod-boproint.net-ng.com,net_io_prod-boproint.net-ng.com,errors_prod-boproint.net-ng.com
1,1.0,1.0,1.0,1.0,1.0,0.0,455.1,11.6,0
2,2.0,2.0,2.0,2.0,2.0,0.0,468.0,23.1,0
3,3.0,3.0,2.8,2.9,3.0,0.1,549.2,34.2,0
4,3.9,3.9,3.6,3.8,4.0,0.3,758.7,44.9,0
5,3.8,3.8,3.4,3.6,3.8,0.3,2085.8,43.7,0
