dem_req_rate,req_rate_webspace-int.net-ng.com,con_rate_webspace-int.net-ng.com,min_rep_rate_webspace-int.net-ng.com,avg_rep_rate_webspace-int.net-ng.com,max_rep_rate_webspace-int.net-ng.com,stddev_rep_rate_webspace-int.net-ng.com,resp_time_webspace-int.net-ng.com,net_io_webspace-int.net-ng.com,errors_webspace-int.net-ng.com
50,50.0,50.0,50.0,50.0,50.0,0.0,2.8,20.3,0
60,60.0,60.0,60.0,60.0,60.0,0.0,2.8,24.3,0
70,70.0,70.0,70.0,70.0,70.0,0.0,2.8,28.4,0
80,80.0,80.0,80.0,80.0,80.0,0.0,2.8,32.4,0
90,90.0,90.0,90.0,90.0,90.0,0.0,2.8,36.5,0
100,100.0,100.0,100.0,100.0,100.0,0.0,2.7,40.5,0
110,110.0,110.0,110.0,110.0,110.0,0.0,2.8,44.6,0
120,120.0,120.0,120.0,120.0,120.0,0.0,2.8,48.6,0
130,130.0,130.0,130.0,130.0,130.0,0.0,2.8,52.7,0
140,140.0,140.0,140.0,140.0,140.0,0.0,2.8,56.8,0
150,150.0,150.0,150.0,150.0,150.0,0.0,3.0,60.8,0
160,160.0,160.0,160.0,160.0,160.0,0.0,3.0,64.9,0
170,170.0,170.0,170.0,170.0,170.0,0.0,3.1,68.9,0
180,180.0,180.0,180.0,180.0,180.0,0.0,3.1,73.0,0
190,190.0,190.0,190.0,190.0,190.0,0.0,3.0,77.0,0
200,200.0,200.0,200.0,200.0,200.0,0.0,2.9,81.1,0
