dem_req_rate,req_rate_192.168.100.163,con_rate_192.168.100.163,min_rep_rate_192.168.100.163,avg_rep_rate_192.168.100.163,max_rep_rate_192.168.100.163,stddev_rep_rate_192.168.100.163,resp_time_192.168.100.163,net_io_192.168.100.163,errors_192.168.100.163
10,4.3,9.7,0.0,0.0,0.0,0.0,0.0,0.5,101
12,0.5,11.6,0.0,0.0,0.0,0.0,0.0,0.1,101
14,0.8,13.5,0.0,0.0,0.0,0.0,0.0,0.1,101
16,1.0,15.3,0.0,0.0,0.0,0.0,0.0,0.1,101
18,1.2,17.1,0.0,0.0,0.0,0.0,0.0,0.2,101
20,0.7,18.8,0.0,0.0,0.0,0.0,0.0,0.1,101
22,0.6,20.5,0.0,0.0,0.0,0.0,0.0,0.1,101
24,0.8,22.6,0.0,0.0,0.0,0.0,0.0,0.1,101
26,0.8,24.4,0.0,0.0,0.0,0.0,0.0,0.1,101
28,0.8,25.8,0.0,0.0,0.0,0.0,0.0,0.1,101
30,0.6,28.1,0.0,0.0,0.0,0.0,0.0,0.1,101
