dem_req_rate,req_rate_socollect-int-db.net-ng.com,con_rate_socollect-int-db.net-ng.com,min_rep_rate_socollect-int-db.net-ng.com,avg_rep_rate_socollect-int-db.net-ng.com,max_rep_rate_socollect-int-db.net-ng.com,stddev_rep_rate_socollect-int-db.net-ng.com,resp_time_socollect-int-db.net-ng.com,net_io_socollect-int-db.net-ng.com,errors_socollect-int-db.net-ng.com
1,1.0,1.0,0.0,1.0,2.0,0.5,1384.2,21.7,0
3,2.1,2.1,0.8,1.8,2.2,0.7,5967.2,46.3,0
5,2.1,2.1,0.8,2.0,2.8,0.9,9017.6,46.2,0
7,2.2,2.2,1.4,1.8,2.6,0.5,10084.0,46.5,0
9,2.2,2.2,0.8,2.0,2.4,0.8,11101.3,47.2,0
11,2.2,2.2,0.6,1.9,3.0,1.0,11632.5,46.6,0
13,2.2,2.2,1.4,1.9,2.2,0.3,11642.3,48.1,0
15,2.2,2.2,1.2,2.0,2.4,0.5,11482.6,47.6,0
17,2.2,2.2,1.4,1.9,2.2,0.4,11614.0,47.4,0
19,2.2,2.2,1.4,2.0,2.4,0.4,11856.3,46.9,0
