dem_req_rate,req_rate_inso-int.net-ng.com,con_rate_inso-int.net-ng.com,min_rep_rate_inso-int.net-ng.com,avg_rep_rate_inso-int.net-ng.com,max_rep_rate_inso-int.net-ng.com,stddev_rep_rate_inso-int.net-ng.com,resp_time_inso-int.net-ng.com,net_io_inso-int.net-ng.com,errors_inso-int.net-ng.com
10,9.8,9.8,0.0,0.2,5.0,0.9,2538.2,7.2,5117.39130434783
12,11.7,11.7,0.0,0.0,0.0,0.0,0.0,1.4,101
14,13.6,13.6,0.0,0.0,0.0,0.0,0.0,1.6,101
16,15.5,15.5,0.0,0.0,0.0,0.0,0.0,1.8,101
18,17.4,17.4,0.0,0.0,0.0,0.0,0.0,2.0,101
20,19.2,19.2,0.0,0.0,0.0,0.0,0.0,2.2,101
22,21.0,21.0,0.0,0.0,0.0,0.0,0.0,2.4,101
24,22.9,22.9,0.0,0.0,0.0,0.0,0.0,2.7,101
26,24.7,24.7,0.0,0.0,0.0,0.0,0.0,2.9,101
28,26.5,26.5,0.0,0.0,0.0,0.0,0.0,3.1,101
30,28.2,28.2,0.0,0.0,0.0,0.0,0.0,3.3,101
