dem_req_rate,req_rate_inso-int.net-ng.com,con_rate_inso-int.net-ng.com,min_rep_rate_inso-int.net-ng.com,avg_rep_rate_inso-int.net-ng.com,max_rep_rate_inso-int.net-ng.com,stddev_rep_rate_inso-int.net-ng.com,resp_time_inso-int.net-ng.com,net_io_inso-int.net-ng.com,errors_inso-int.net-ng.com
10,10.0,10.0,10.0,10.0,10.0,0.0,0.7,4.9,0
12,12.0,12.0,12.0,12.0,12.0,0.0,0.7,5.9,0
14,14.0,14.0,14.0,14.0,14.0,0.0,0.6,6.9,0
16,16.0,16.0,16.0,16.0,16.0,0.0,0.6,7.9,0
18,18.0,18.0,18.0,18.0,18.0,0.0,0.6,8.9,0
20,20.0,20.0,20.0,20.0,20.0,0.0,0.5,9.9,0
22,22.0,22.0,22.0,22.0,22.0,0.0,0.6,10.9,0
24,24.0,24.0,24.0,24.0,24.0,0.0,0.6,11.8,0
26,26.0,26.0,26.0,26.0,26.0,0.0,0.6,12.8,0
28,28.0,28.0,28.0,28.0,28.0,0.0,0.6,13.8,0
30,30.0,30.0,30.0,30.0,30.0,0.0,0.6,14.8,0
