dem_req_rate,req_rate_192.168.100.163,con_rate_192.168.100.163,min_rep_rate_192.168.100.163,avg_rep_rate_192.168.100.163,max_rep_rate_192.168.100.163,stddev_rep_rate_192.168.100.163,resp_time_192.168.100.163,net_io_192.168.100.163,errors_192.168.100.163
10,0.0,10.0,0.0,0.0,0.0,0.0,0.0,0.0,101
20,0.0,20.0,0.0,0.0,0.0,0.0,0.0,0.0,101
30,0.0,30.0,0.0,0.0,0.0,0.0,0.0,0.0,101
40,0.0,40.0,0.0,0.0,0.0,0.0,0.0,0.0,101
50,0.0,50.0,0.0,0.0,0.0,0.0,0.0,0.0,101
60,0.0,60.0,0.0,0.0,0.0,0.0,0.0,0.0,101
70,0.0,70.0,0.0,0.0,0.0,0.0,0.0,0.0,101
80,0.0,80.0,0.0,0.0,0.0,0.0,0.0,0.0,101
90,0.0,90.0,0.0,0.0,0.0,0.0,0.0,0.0,101
100,0.0,100.0,0.0,0.0,0.0,0.0,0.0,0.0,101
110,0.0,110.0,0.0,0.0,0.0,0.0,0.0,0.0,101
120,0.0,120.0,0.0,0.0,0.0,0.0,0.0,0.0,101
130,0.0,129.9,0.0,0.0,0.0,0.0,0.0,0.0,101
140,0.0,139.8,0.0,0.0,0.0,0.0,0.0,0.0,101
150,0.0,150.0,0.0,0.0,0.0,0.0,0.0,0.0,101
160,0.0,160.0,0.0,0.0,0.0,0.0,0.0,0.0,101
170,0.0,170.0,0.0,0.0,0.0,0.0,0.0,0.0,101
180,0.0,180.0,0.0,0.0,0.0,0.0,0.0,0.0,101
190,0.0,190.0,0.0,0.0,0.0,0.0,0.0,0.0,101
200,0.0,200.0,0.0,0.0,0.0,0.0,0.0,0.0,101
210,0.0,209.3,0.0,0.0,0.0,0.0,0.0,0.0,101
220,0.0,219.0,0.0,0.0,0.0,0.0,0.0,0.0,101
230,0.0,229.6,0.0,0.0,0.0,0.0,0.0,0.0,101
240,0.0,239.9,0.0,0.0,0.0,0.0,0.0,0.0,101
