dem_req_rate,req_rate_webspace-int.net-ng.com,con_rate_webspace-int.net-ng.com,min_rep_rate_webspace-int.net-ng.com,avg_rep_rate_webspace-int.net-ng.com,max_rep_rate_webspace-int.net-ng.com,stddev_rep_rate_webspace-int.net-ng.com,resp_time_webspace-int.net-ng.com,net_io_webspace-int.net-ng.com,errors_webspace-int.net-ng.com
50,48.3,50.0,1.0,44.1,85.6,28.7,633.7,958.0,12.540192926045
60,60.0,60.0,59.8,59.9,60.0,0.1,27.4,1292.7,0
70,70.0,70.0,69.8,69.9,70.2,0.2,24.5,1508.0,0
80,80.0,80.0,79.8,79.9,80.2,0.2,24.5,1723.5,0
90,89.9,89.9,89.6,89.9,90.0,0.2,25.1,1937.8,0
100,99.8,99.8,99.6,99.9,100.0,0.2,27.0,2151.2,0
110,109.9,109.9,109.6,109.8,110.0,0.2,56.8,2367.6,0
120,119.9,119.9,117.6,118.9,119.6,1.1,54.8,2584.3,0
130,129.5,129.5,123.2,129.8,135.2,6.1,81.6,2790.0,0
140,69.4,94.4,6.4,53.5,87.2,34.7,2290.7,1106.0,84.2105263157895
150,149.8,149.8,149.2,149.5,149.8,0.4,100.1,3228.9,0
160,159.6,159.6,157.8,159.1,160.4,1.9,33.5,3440.2,0
170,169.7,169.7,168.2,168.4,168.6,0.3,46.1,3658.3,0
180,178.1,178.1,175.4,176.3,177.2,1.3,135.4,3838.9,0
190,178.7,178.7,178.2,179.2,180.2,1.4,337.2,3852.2,0
200,175.5,175.5,172.6,174.3,176.0,2.4,784.7,3782.8,0
