dem_req_rate,req_rate_bosite-preview-int.net-ng.com,con_rate_bosite-preview-int.net-ng.com,min_rep_rate_bosite-preview-int.net-ng.com,avg_rep_rate_bosite-preview-int.net-ng.com,max_rep_rate_bosite-preview-int.net-ng.com,stddev_rep_rate_bosite-preview-int.net-ng.com,resp_time_bosite-preview-int.net-ng.com,net_io_bosite-preview-int.net-ng.com,errors_bosite-preview-int.net-ng.com
30,30.0,30.0,30.0,30.0,30.0,0.0,14.0,527.3,0
40,40.0,40.0,39.8,40.0,40.2,0.1,13.5,703.0,0
50,50.0,50.0,49.8,50.0,50.2,0.1,13.2,878.6,0
60,60.0,60.0,59.8,60.0,60.2,0.2,13.4,1054.3,0
70,70.0,70.0,69.2,70.0,70.8,0.5,16.3,1229.8,0
80,80.0,80.0,79.8,79.9,80.0,0.1,16.6,1405.3,0
90,90.0,90.0,89.6,89.9,90.2,0.3,15.9,1581.0,0
100,99.9,99.9,99.4,99.9,100.2,0.4,18.7,1756.1,0
110,109.9,109.9,109.8,109.9,110.0,0.1,15.9,1931.7,0
120,119.9,119.9,119.4,119.9,120.2,0.4,16.8,2106.4,0
130,129.9,129.9,129.2,129.8,130.2,0.5,25.5,2281.8,0
140,135.3,135.3,131.4,134.6,136.8,2.8,358.3,2377.8,0
150,142.6,142.6,141.4,141.8,142.2,0.6,399.9,2505.9,0
160,130.3,131.0,110.4,130.2,141.2,17.2,1168.9,2290.0,0.478468899521531
170,130.7,130.7,130.8,137.7,141.4,5.9,1163.1,2284.8,0.478468899521531
180,131.0,131.7,129.8,136.9,141.6,6.3,1342.8,2280.7,1.44927536231884
190,121.9,122.9,89.6,123.1,140.4,29.0,1685.5,2021.2,6.87022900763359
200,135.3,137.1,117.8,132.9,141.6,13.1,1523.0,2295.7,5
