dem_req_rate,req_rate_192.168.100.79,con_rate_192.168.100.79,min_rep_rate_192.168.100.79,avg_rep_rate_192.168.100.79,max_rep_rate_192.168.100.79,stddev_rep_rate_192.168.100.79,resp_time_192.168.100.79,net_io_192.168.100.79,errors_192.168.100.79
30,30.0,30.0,30.0,30.0,30.0,0.0,22.9,119.0,0
40,40.0,40.0,39.8,40.0,40.2,0.1,22.7,158.7,0
50,50.0,50.0,49.8,50.0,50.0,0.1,24.8,198.3,0
60,60.0,60.0,59.8,60.0,60.2,0.1,37.8,237.9,0
70,70.0,70.0,69.8,69.9,70.2,0.2,25.3,277.6,0
80,79.9,79.9,79.6,79.9,80.0,0.2,30.3,317.1,0
90,79.3,79.3,82.0,82.5,82.8,0.3,1076.1,314.3,0.143061516452074
100,82.4,82.4,60.6,76.0,82.8,9.4,1768.3,297.3,10.1783840503673
110,81.5,83.0,54.4,71.8,82.0,11.5,2270.9,283.6,16.5371809100999
120,82.2,86.6,61.6,73.2,82.0,9.1,2356.7,277.1,24.4813278008299
130,81.9,89.2,64.2,72.4,81.8,8.7,2476.7,272.0,30.6782825140012
140,82.0,93.6,62.4,71.2,79.0,8.1,2540.3,269.3,38.5224274406332
150,81.8,97.6,60.6,70.4,78.4,8.8,2585.3,267.1,45.7321304649549
160,82.5,101.9,55.0,70.9,79.0,11.2,2586.1,276.2,46.9559132260322
170,83.2,105.9,68.0,75.1,79.0,6.1,2604.0,271.0,55.902004454343
180,83.2,109.6,65.4,72.5,78.2,6.5,2612.3,265.9,64.4479248238058
190,84.3,113.6,65.8,73.7,78.5,6.9,2659.5,273.7,65.48463356974
200,82.9,116.7,68.0,73.4,78.4,5.2,2609.9,271.8,71.1491442542787
