dem_req_rate,req_rate_inso-int.net-ng.com,con_rate_inso-int.net-ng.com,min_rep_rate_inso-int.net-ng.com,avg_rep_rate_inso-int.net-ng.com,max_rep_rate_inso-int.net-ng.com,stddev_rep_rate_inso-int.net-ng.com,resp_time_inso-int.net-ng.com,net_io_inso-int.net-ng.com,errors_inso-int.net-ng.com
10,10.0,10.0,7.2,10.0,11.8,0.3,552.0,491.5,0
15,15.0,15.0,12.8,15.0,15.6,0.3,775.9,736.6,0
20,19.7,19.7,0.0,1.7,17.0,4.3,2273.1,65.5,1074.16829745597
25,24.5,24.5,0.0,5.9,9.6,2.4,11.5,4.9,312.654745529574
30,26.9,28.1,0.0,10.2,18.0,3.5,11.4,6.6,181.425891181989
35,23.0,32.3,0.0,9.0,18.0,3.1,10.9,5.8,258.637178720861
40,,,,,,,,,101
45,,,,,,,,,101
50,,,,,,,,,101
55,,,,,,,,,101
60,,,,,,,,,101
65,,,,,,,,,101
70,,,,,,,,,101
75,,,,,,,,,101
80,,,,,,,,,101
85,,,,,,,,,101
90,,,,,,,,,101
95,,,,,,,,,101
100,10.9,61.3,0.0,2.5,20.0,4.5,6.3,2.1,2379.33884297521
