dem_req_rate,req_rate_inso-int.net-ng.com,con_rate_inso-int.net-ng.com,min_rep_rate_inso-int.net-ng.com,avg_rep_rate_inso-int.net-ng.com,max_rep_rate_inso-int.net-ng.com,stddev_rep_rate_inso-int.net-ng.com,resp_time_inso-int.net-ng.com,net_io_inso-int.net-ng.com,errors_inso-int.net-ng.com
10,9.9,9.9,0.0,0.0,0.0,0.0,537.9,1.2,101
15,14.8,14.8,0.0,0.0,0.0,0.0,743.9,1.7,101
20,19.7,19.7,0.0,0.0,0.0,0.0,2879.6,2.3,101
25,24.5,24.5,0.0,5.2,8.6,2.1,12.1,4.6,372.44094488189
30,29.2,29.2,0.0,10.6,16.0,3.5,12.4,7.1,175.608635737253
35,29.6,33.1,0.0,11.7,19.8,3.6,12.0,7.4,185.986653956149
40,25.0,33.9,0.0,9.2,20.2,4.7,11.7,6.1,272.208436724566
45,,,,,,,,,101
50,,,,,,,,,101
55,,,,,,,,,101
60,,,,,,,,,101
65,,,,,,,,,101
70,,,,,,,,,101
75,,,,,,,,,101
80,,,,,,,,,101
85,,,,,,,,,101
90,,,,,,,,,101
95,,,,,,,,,101
100,,,,,,,,,101
