dem_req_rate,req_rate_inso-int.net-ng.com,con_rate_inso-int.net-ng.com,min_rep_rate_inso-int.net-ng.com,avg_rep_rate_inso-int.net-ng.com,max_rep_rate_inso-int.net-ng.com,stddev_rep_rate_inso-int.net-ng.com,resp_time_inso-int.net-ng.com,net_io_inso-int.net-ng.com,errors_inso-int.net-ng.com
10,10.0,10.0,0.0,7.8,10.8,4.0,562.2,402.3,28.0956447480786
15,15.0,15.0,12.6,15.0,15.8,0.4,952.6,804.4,0
20,19.7,19.7,0.0,1.1,16.4,3.9,2882.8,60.1,1723.70820668693
25,24.5,24.5,0.0,0.0,0.0,0.0,0.0,2.8,101
30,29.3,29.3,0.0,0.0,0.0,0.0,0.0,3.4,101
35,34.0,34.0,0.0,0.0,0.0,0.0,0.0,4.0,101
40,38.7,38.7,0.0,0.0,0.0,0.0,0.0,4.5,101
45,43.4,43.4,0.0,0.0,0.0,0.0,0.0,5.0,101
50,48.0,48.0,0.0,0.0,0.0,0.0,0.0,5.6,101
55,52.6,52.6,0.0,0.0,0.0,0.0,0.0,6.1,101
60,57.1,57.1,0.0,0.0,0.0,0.0,0.0,6.6,101
65,61.7,61.7,0.0,0.0,0.0,0.0,0.0,7.2,101
70,66.1,66.1,0.0,0.0,0.0,0.0,0.0,7.7,101
75,70.6,70.6,0.0,0.0,0.0,0.0,0.0,8.2,101
80,75.0,75.0,0.0,0.0,0.0,0.0,0.0,8.7,101
