dem_req_rate,req_rate_inso-int.net-ng.com,con_rate_inso-int.net-ng.com,min_rep_rate_inso-int.net-ng.com,avg_rep_rate_inso-int.net-ng.com,max_rep_rate_inso-int.net-ng.com,stddev_rep_rate_inso-int.net-ng.com,resp_time_inso-int.net-ng.com,net_io_inso-int.net-ng.com,errors_inso-int.net-ng.com
10,10.0,10.0,9.4,10.0,10.6,0.2,237.5,327.4,0
15,15.0,15.0,13.6,15.0,16.4,0.6,259.2,491.0,0
20,20.0,20.0,17.0,20.0,22.4,1.3,281.7,654.6,0
25,25.0,25.0,21.4,25.0,28.6,2.0,310.8,817.8,0
30,29.9,29.9,26.0,29.9,34.0,1.8,358.3,980.4,0
35,34.9,34.9,29.8,34.8,37.0,1.7,502.3,1142.6,0
40,38.5,38.5,29.6,33.3,37.6,2.3,4099.1,1090.2,15.6737998843262
45,42.5,42.5,25.2,31.3,37.0,3.0,4436.0,1021.3,36.4256480218281
50,46.8,46.8,20.4,29.8,37.2,3.2,4738.2,965.9,58.7301587301587
55,50.7,50.7,26.0,30.2,35.4,2.6,4708.9,971.7,71.0376282782212
60,54.6,54.6,24.0,28.8,37.2,3.3,4763.3,916.4,95.6947162426614
65,58.5,58.5,5.8,19.6,33.0,9.6,5441.7,497.3,202.41935483871
70,57.9,60.0,0.0,14.9,32.8,7.8,6435.8,335.8,312.371134020619
75,57.9,62.8,10.0,16.6,32.8,6.2,6518.2,384.1,280.469245402663
80,58.3,65.2,3.2,17.0,36.6,9.3,5978.5,396.1,290.625
85,57.9,68.8,6.8,16.7,33.2,7.6,6345.9,348.7,321.644413211525
90,58.1,69.0,9.0,18.9,37.0,8.3,6634.8,417.9,289.357560025957
95,59.6,73.8,9.8,18.5,36.4,7.1,6096.3,455.2,324.929178470255
100,57.5,71.6,8.0,16.4,39.6,8.4,6204.3,365.2,381.540930979133
