dem_req_rate,req_rate_inso-int.net-ng.com,con_rate_inso-int.net-ng.com,min_rep_rate_inso-int.net-ng.com,avg_rep_rate_inso-int.net-ng.com,max_rep_rate_inso-int.net-ng.com,stddev_rep_rate_inso-int.net-ng.com,resp_time_inso-int.net-ng.com,net_io_inso-int.net-ng.com,errors_inso-int.net-ng.com
10,10.0,10.0,9.6,10.0,10.2,0.1,244.1,357.1,0
15,15.0,15.0,13.8,15.0,16.4,0.7,268.2,535.5,0
20,20.0,20.0,17.4,20.0,21.8,1.0,276.9,713.6,0
25,25.0,25.0,20.2,25.0,28.6,2.0,323.7,892.1,0
30,29.9,29.9,25.4,29.9,33.0,1.6,369.5,1068.4,0
35,34.9,34.9,29.8,34.9,37.4,1.7,571.3,1248.1,0
40,38.2,38.2,30.8,33.5,36.8,1.9,4063.9,1186.7,15.0747986191024
45,42.6,42.6,23.6,30.7,37.8,2.9,4570.2,1094.7,38.9854065323141
50,46.4,46.4,25.0,29.2,36.8,3.3,4702.0,1026.4,61.8122977346278
55,50.7,50.7,20.2,27.9,31.6,2.4,5040.4,978.1,85.2995676343422
60,54.6,54.6,23.6,28.5,34.8,2.8,4883.8,984.1,98.4783327820046
65,56.0,56.0,4.0,17.9,33.4,10.1,5391.0,484.8,218.979266347687
70,57.0,59.1,1.4,15.8,28.8,7.3,6821.1,395.2,280.952380952381
75,58.2,62.6,3.6,19.2,36.8,10.0,6149.9,506.0,229.127811300055
80,58.7,65.9,7.8,16.9,34.2,7.9,6141.3,429.5,295.5174686882
85,56.7,67.5,0.0,14.6,32.6,7.8,6349.3,376.0,379.616306954436
90,59.2,72.6,0.0,15.8,34.4,7.9,6569.7,412.0,369.116497263487
95,58.5,70.9,8.4,18.2,35.8,8.2,6403.4,477.5,312.371134020619
100,58.4,71.7,3.8,16.4,31.8,9.0,6311.5,395.0,381.154771451484
