dem_req_rate,req_rate_inso-int.net-ng.com,con_rate_inso-int.net-ng.com,min_rep_rate_inso-int.net-ng.com,avg_rep_rate_inso-int.net-ng.com,max_rep_rate_inso-int.net-ng.com,stddev_rep_rate_inso-int.net-ng.com,resp_time_inso-int.net-ng.com,net_io_inso-int.net-ng.com,errors_inso-int.net-ng.com
10,10.0,10.0,9.4,10.0,10.4,0.1,241.0,335.8,0
15,15.0,15.0,14.2,15.0,15.6,0.3,253.3,503.5,0
20,20.0,20.0,19.2,20.0,20.6,0.2,279.6,671.2,0
25,25.0,25.0,23.6,25.0,25.4,0.3,318.3,838.4,0
30,30.0,30.0,27.8,30.0,31.4,0.6,347.9,1006.0,0
35,34.9,34.9,32.6,34.8,37.2,1.2,455.9,1172.3,0
40,38.5,38.5,19.2,31.2,37.2,3.6,4310.9,1045.3,23.6603462489695
45,42.6,42.6,25.0,31.2,37.2,3.0,4419.9,1045.3,36.830102622577
50,46.8,46.8,24.6,30.2,35.6,3.1,4656.8,998.5,57.4389923904487
55,50.5,50.5,22.8,29.8,36.2,3.0,4815.9,978.2,73.7116386797915
60,54.6,54.6,27.0,29.6,33.4,1.6,4901.7,963.6,90.4761904761905
65,57.6,57.6,7.4,21.7,33.4,8.0,5786.8,552.3,172.232304900181
70,56.7,59.1,6.6,16.2,32.0,8.4,6442.7,382.2,270.599135268684
75,58.8,62.4,7.2,17.9,35.8,7.6,6173.1,444.7,252.319436288902
80,56.6,65.5,0.0,14.0,33.8,9.0,6827.4,312.1,376.568705321684
85,57.7,66.7,0.0,18.4,35.2,9.2,6714.8,420.1,283.141762452107
90,57.7,70.2,9.8,18.4,35.8,8.0,6390.2,443.7,300.266844563042
95,59.1,72.3,9.2,16.2,29.0,6.3,6197.5,394.0,369.116497263487
100,58.4,72.1,2.0,16.7,34.8,8.0,6805.9,388.1,378.08764940239
