dem_req_rate,req_rate_inso-int.net-ng.com,con_rate_inso-int.net-ng.com,min_rep_rate_inso-int.net-ng.com,avg_rep_rate_inso-int.net-ng.com,max_rep_rate_inso-int.net-ng.com,stddev_rep_rate_inso-int.net-ng.com,resp_time_inso-int.net-ng.com,net_io_inso-int.net-ng.com,errors_inso-int.net-ng.com
10,10.0,10.0,10.0,10.0,10.0,0.0,0.7,4.5,0
15,15.0,15.0,15.0,15.0,15.0,0.0,0.6,6.7,0
20,20.0,20.0,20.0,20.0,20.0,0.0,0.4,8.9,0
25,25.0,25.0,25.0,25.0,25.0,0.0,0.6,11.2,0
30,30.0,30.0,30.0,30.0,30.0,0.0,0.6,13.4,0
35,35.0,35.0,35.0,35.0,35.0,0.0,0.6,15.7,0
40,40.0,40.0,40.0,40.0,40.0,0.0,0.6,17.9,0
45,45.0,45.0,45.0,45.0,45.0,0.0,0.5,20.1,0
50,50.0,50.0,50.0,50.0,50.0,0.0,0.5,22.4,0
55,55.0,55.0,55.0,55.0,55.0,0.0,0.6,24.6,0
60,60.0,60.0,60.0,60.0,60.0,0.0,0.6,26.8,0
65,65.0,65.0,65.0,65.0,65.0,0.0,0.6,29.1,0
70,70.0,70.0,70.0,70.0,70.0,0.0,0.6,31.3,0
75,75.0,75.0,75.0,75.0,75.0,0.0,0.6,33.5,0
80,80.0,80.0,80.0,80.0,80.0,0.0,0.6,35.8,0
85,85.0,85.0,85.0,85.0,85.0,0.0,0.6,38.0,0
90,90.0,90.0,90.0,90.0,90.0,0.0,0.6,40.3,0
95,95.0,95.0,95.0,95.0,95.0,0.0,0.7,42.5,0
100,100.0,100.0,100.0,100.0,100.0,0.0,0.7,44.7,0
