dem_req_rate,req_rate_inso-int.net-ng.com,con_rate_inso-int.net-ng.com,min_rep_rate_inso-int.net-ng.com,avg_rep_rate_inso-int.net-ng.com,max_rep_rate_inso-int.net-ng.com,stddev_rep_rate_inso-int.net-ng.com,resp_time_inso-int.net-ng.com,net_io_inso-int.net-ng.com,errors_inso-int.net-ng.com
10,10.0,10.0,8.8,10.0,11.2,0.7,304.6,420.5,0
15,15.0,15.0,13.2,15.0,17.0,0.8,317.9,630.4,0
20,20.0,20.0,18.6,20.0,21.0,0.5,330.8,840.5,0
25,25.0,25.0,22.0,25.0,28.0,1.4,388.9,1050.3,0
30,29.9,29.9,25.6,29.9,32.0,1.3,535.4,1259.1,0
35,33.7,33.7,25.0,29.1,32.2,1.7,4537.1,1219.9,16.3241566498643
40,38.0,38.0,23.2,27.1,31.8,2.0,4988.0,1134.4,40.9774436090226
45,42.2,42.2,22.0,25.0,32.0,2.6,5243.1,1038.7,70.8914839077186
50,46.2,46.2,21.6,25.2,32.6,2.8,5257.8,1032.7,88.2648258550361
55,50.4,50.4,20.8,25.1,32.0,2.6,5404.2,1031.6,105.831903945111
60,54.6,54.6,16.0,24.1,31.2,3.6,5552.4,951.2,135.571260306243
65,57.6,57.7,1.6,13.5,29.0,6.9,6156.5,382.8,336.046511627907
70,57.0,60.2,0.0,11.3,23.4,6.7,6555.5,218.5,448.446069469835
75,58.0,63.4,7.0,14.7,32.2,8.2,6083.4,395.9,335.413642960813
80,56.3,64.0,3.4,12.9,31.4,8.1,5810.4,367.6,416.351118760757
85,57.1,66.6,3.8,15.2,32.0,7.9,6122.4,412.9,362.962962962963
90,58.0,71.6,4.8,13.8,32.0,8.6,5710.3,400.3,435.714285714286
95,56.6,72.8,0.0,8.3,14.6,3.3,6054.8,183.5,804.977375565611
100,56.8,71.6,3.8,14.5,32.0,7.4,6489.8,413.7,444.464609800363
