dem_req_rate,req_rate_inso-int.net-ng.com,con_rate_inso-int.net-ng.com,min_rep_rate_inso-int.net-ng.com,avg_rep_rate_inso-int.net-ng.com,max_rep_rate_inso-int.net-ng.com,stddev_rep_rate_inso-int.net-ng.com,resp_time_inso-int.net-ng.com,net_io_inso-int.net-ng.com,errors_inso-int.net-ng.com
10,10.0,10.0,9.6,10.0,10.4,0.2,262.9,382.3,0
15,15.0,15.0,13.4,15.0,16.6,0.7,280.5,573.0,0
20,20.0,20.0,17.2,20.0,23.0,1.3,297.3,764.0,0
25,25.0,25.0,20.6,25.0,29.6,1.7,333.3,955.0,0
30,30.0,30.0,27.4,29.9,31.6,1.2,376.9,1146.1,0
35,34.2,34.2,31.0,34.2,37.2,1.4,1918.8,1309.0,0
40,38.3,38.3,26.2,31.2,35.8,2.6,4398.1,1193.6,22.6742997342057
45,42.5,42.5,24.6,29.4,34.8,2.3,4743.7,1119.6,45.3840562151684
50,46.4,46.4,20.6,27.6,34.2,3.5,4914.7,1036.7,71.4285714285714
55,50.7,50.7,23.6,27.9,35.0,3.0,4979.2,1045.1,85.7010213556175
60,54.6,54.6,24.6,28.8,34.8,2.6,4902.8,1070.7,95.248942401562
65,57.3,57.3,7.6,19.8,35.4,8.1,5639.9,572.0,200.902708124373
70,56.1,59.0,0.0,11.6,29.8,7.3,6516.6,292.7,416.351118760757
75,57.8,63.0,5.2,15.4,33.8,9.1,6099.7,410.8,309.556313993174
80,59.1,65.9,4.0,17.1,30.8,7.7,6434.7,499.7,289.357560025957
85,58.4,68.8,5.0,14.9,32.4,7.3,6412.1,408.2,371.698113207547
90,58.7,70.8,0.0,16.6,33.2,8.1,6793.2,424.0,344.444444444444
95,58.4,72.2,0.0,13.1,26.8,7.6,7039.5,357.5,486.510263929619
100,58.1,72.1,4.0,16.5,36.2,9.5,6570.1,395.3,383.48106365834
