dem_req_rate,req_rate_webspace-int.net-ng.com,con_rate_webspace-int.net-ng.com,min_rep_rate_webspace-int.net-ng.com,avg_rep_rate_webspace-int.net-ng.com,max_rep_rate_webspace-int.net-ng.com,stddev_rep_rate_webspace-int.net-ng.com,resp_time_webspace-int.net-ng.com,net_io_webspace-int.net-ng.com,errors_webspace-int.net-ng.com
50,40.8,42.1,0.0,18.5,38.2,16.9,2764.9,369.7,152.100840336134
60,39.4,48.9,0.0,4.1,16.6,6.2,4417.1,87.2,1188.34355828221
70,38.4,55.3,0.0,1.6,11.2,4.2,4360.3,36.3,3650
80,38.4,61.4,0.0,2.0,10.0,4.0,4301.5,42.4,3400
90,38.0,67.0,0.0,1.3,5.4,2.2,4273.5,31.9,5150
100,37.8,72.4,0.0,0.6,1.8,0.8,4517.0,14.5,14900
110,38.8,77.5,0.0,1.8,4.8,2.4,4235.9,39.6,4672.72727272727
120,37.1,82.4,0.0,1.2,4.0,1.8,4486.2,30.5,6674.1935483871
130,36.9,87.0,0.0,0.7,2.0,0.9,4198.5,16.6,14900
140,38.8,91.3,0.0,1.0,3.2,1.5,4300.4,23.1,10400
150,36.9,95.5,0.0,1.1,3.4,1.6,4601.7,24.8,9900
160,37.1,99.5,0.0,1.4,3.6,1.8,4641.6,34.0,7141.37931034483
170,38.8,103.3,0.0,1.6,5.6,2.7,4450.4,39.6,6263.63636363636
180,35.4,106.8,0.0,0.6,1.8,1.0,4818.2,13.7,23233.3333333333
190,36.4,110.3,0.0,1.9,5.2,2.8,4519.0,37.2,7141.37931034483
200,36.0,113.6,0.0,2.5,6.4,3.4,4396.0,47.6,5575.67567567568
