dem_req_rate,req_rate_sowebspace-int.net-ng.com,con_rate_sowebspace-int.net-ng.com,min_rep_rate_sowebspace-int.net-ng.com,avg_rep_rate_sowebspace-int.net-ng.com,max_rep_rate_sowebspace-int.net-ng.com,stddev_rep_rate_sowebspace-int.net-ng.com,resp_time_sowebspace-int.net-ng.com,net_io_sowebspace-int.net-ng.com,errors_sowebspace-int.net-ng.com
10,10.0,10.0,10.0,10.0,10.0,0.0,23.5,110.6,0
15,15.0,15.0,15.0,15.0,15.0,0.0,23.3,165.9,0
20,20.0,20.0,20.0,20.0,20.0,0.0,23.2,221.2,0
25,25.0,25.0,25.0,25.0,25.0,0.0,23.6,276.5,0
30,30.0,30.0,30.0,30.0,30.0,0.0,24.4,331.7,0
35,35.0,35.0,34.8,35.0,35.0,0.1,36.7,387.0,0
40,40.0,40.0,39.8,40.0,40.0,0.1,24.0,442.2,0
45,45.0,45.0,44.8,45.0,45.0,0.1,27.6,497.4,0
50,47.4,47.4,41.0,47.2,50.0,4.2,321.0,523.8,0.1001001001001
55,43.9,44.8,14.6,42.9,53.1,18.9,1364.1,470.9,5.15247108307045
60,43.7,47.4,31.8,42.1,49.4,8.3,2780.9,469.0,11.731843575419
65,63.6,63.6,56.8,63.5,67.4,5.9,509.5,702.8,0
70,53.7,53.7,44.6,56.4,65.4,10.7,1124.1,591.1,0.401606425702811
75,43.7,49.4,33.6,41.2,46.6,5.6,3477.3,453.2,20.627261761158
80,48.2,52.4,10.6,29.3,39.4,16.2,3079.1,362.5,60.2564102564103
85,54.9,54.9,34.6,45.7,54.2,10.1,2368.4,470.4,29.366106080207
90,53.9,53.9,45.8,49.3,51.6,3.1,2517.9,466.3,28.0409731113956
95,54.6,54.6,40.0,44.0,50.2,5.4,3151.2,454.4,33.155792276964
100,60.1,61.0,42.6,50.2,61.8,10.2,2949.8,521.2,29.7016861219196
